{
  "data_qualities": {
    "quality": [
      {
        "name": "AutoCorrelation",
        "value": "0.3385345997286296"
      },
      {
        "name": "Dimensionality",
        "value": "4.521817770743839E-4"
      },
      {
        "name": "MajorityClassPercentage",
        "value": "38.29979651820032"
      },
      {
        "name": "MajorityClassSize",
        "value": "1694.0"
      },
      {
        "name": "MinorityClassPercentage",
        "value": "27.17612480217047"
      },
      {
        "name": "MinorityClassSize",
        "value": "1202.0"
      },
      {
        "name": "NumberOfBinaryFeatures",
        "value": "0.0"
      },
      {
        "name": "NumberOfClasses",
        "value": "3.0"
      },
      {
        "name": "NumberOfFeatures",
        "value": "2.0"
      },
      {
        "name": "NumberOfInstances",
        "value": "4423.0"
      },
      {
        "name": "NumberOfInstancesWithMissingValues",
        "value": "0.0"
      },
      {
        "name": "NumberOfMissingValues",
        "value": "0.0"
      },
      {
        "name": "NumberOfNumericFeatures",
        "value": "0.0"
      },
      {
        "name": "NumberOfSymbolicFeatures",
        "value": "1.0"
      },
      {
        "name": "PercentageOfBinaryFeatures",
        "value": "0.0"
      },
      {
        "name": "PercentageOfInstancesWithMissingValues",
        "value": "0.0"
      },
      {
        "name": "PercentageOfMissingValues",
        "value": "0.0"
      },
      {
        "name": "PercentageOfNumericFeatures",
        "value": "0.0"
      },
      {
        "name": "PercentageOfSymbolicFeatures",
        "value": "50.0"
      }
    ]
  }
}